{
  "photoList": {
    "photos": {
      "page": 1,
      "pages": 144349,
      "perpage": 10,
      "total": "1443486",
      "photo": [
        {
          "id": "41903332894",
          "owner": "162425929@N03",
          "secret": "1658cf95da",
          "server": "1751",
          "farm": 2,
          "title": "rear window",
          "ispublic": 1,
          "isfriend": 0,
          "isfamily": 0
        },
        {
          "id": "41903166774",
          "owner": "160658215@N07",
          "secret": "89cedd1543",
          "server": "1752",
          "farm": 2,
          "title": "Watch high quality movies at http://ImovieSh.com/",
          "ispublic": 1,
          "isfriend": 0,
          "isfamily": 0
        },
        {
          "id": "27752730287",
          "owner": "143848125@N08",
          "secret": "c1ffdca5ae",
          "server": "1747",
          "farm": 2,
          "title": "\"Näen sind!?\"  DENZO \"Snow Charm\"",
          "ispublic": 1,
          "isfriend": 0,
          "isfamily": 0
        },
        {
          "id": "42569981732",
          "owner": "160658215@N07",
          "secret": "4b7bdf29c4",
          "server": "1735",
          "farm": 2,
          "title": "Watch high quality movies at http://ImovieSh.com/",
          "ispublic": 1,
          "isfriend": 0,
          "isfamily": 0
        },
        {
          "id": "42620744271",
          "owner": "116120663@N04",
          "secret": "40f0322dda",
          "server": "1738",
          "farm": 2,
          "title": "de szép macska vagy sanyi",
          "ispublic": 1,
          "isfriend": 0,
          "isfamily": 0
        },
        {
          "id": "41902233574",
          "owner": "105832451@N02",
          "secret": "7d5d131412",
          "server": "1744",
          "farm": 2,
          "title": "Week 54",
          "ispublic": 1,
          "isfriend": 0,
          "isfamily": 0
        },
        {
          "id": "40812154290",
          "owner": "88288644@N00",
          "secret": "4d85ea9246",
          "server": "1753",
          "farm": 2,
          "title": "The Whole World in Her Eyes",
          "ispublic": 1,
          "isfriend": 0,
          "isfamily": 0
        },
        {
          "id": "42619885551",
          "owner": "160658215@N07",
          "secret": "d0b9e2846d",
          "server": "1729",
          "farm": 2,
          "title": "Watch high quality movies at http://ImovieSh.com/",
          "ispublic": 1,
          "isfriend": 0,
          "isfamily": 0
        },
        {
          "id": "27750714187",
          "owner": "16397073@N00",
          "secret": "0ca1b00378",
          "server": "1722",
          "farm": 2,
          "title": "Andi",
          "ispublic": 1,
          "isfriend": 0,
          "isfamily": 0
        },
        {
          "id": "27750713887",
          "owner": "16397073@N00",
          "secret": "dcc1008b5e",
          "server": "1733",
          "farm": 2,
          "title": "Ariel",
          "ispublic": 1,
          "isfriend": 0,
          "isfamily": 0
        }
      ]
    }
  }
}
