{
  "photoList": {
    "photos": {
      "page": 2,
      "pages": 144348,
      "perpage": 10,
      "total": "1443473",
      "photo": [
        {
          "id": "41109620744",
          "owner": "45260725@N08",
          "secret": "3a7d04fab9",
          "server": "908",
          "farm": 1,
          "title": "Cat house Cadaqués",
          "ispublic": 1,
          "isfriend": 0,
          "isfamily": 0
        },
        {
          "id": "27890122208",
          "owner": "41569704@N00",
          "secret": "5a891d137a",
          "server": "967",
          "farm": 1,
          "title": "Ellen & the Soccer Ball",
          "ispublic": 1,
          "isfriend": 0,
          "isfamily": 0
        },
        {
          "id": "41614733442",
          "owner": "54568510@N00",
          "secret": "c1c63b73e6",
          "server": "866",
          "farm": 1,
          "title": "Playful little friend",
          "ispublic": 1,
          "isfriend": 0,
          "isfamily": 0
        },
        {
          "id": "26757486367",
          "owner": "54887840@N04",
          "secret": "55171d9f26",
          "server": "927",
          "farm": 1,
          "title": "Katty (07)",
          "ispublic": 1,
          "isfriend": 0,
          "isfamily": 0
        },
        {
          "id": "40766291104",
          "owner": "132740520@N06",
          "secret": "0540499e19",
          "server": "883",
          "farm": 1,
          "title": "IMG_2191b",
          "ispublic": 1,
          "isfriend": 0,
          "isfamily": 0
        },
        {
          "id": "41467319821",
          "owner": "135714780@N05",
          "secret": "b1b26c4d6a",
          "server": "788",
          "farm": 1,
          "title": "Edinburgh Comic Con 2018 EICC -126",
          "ispublic": 1,
          "isfriend": 0,
          "isfamily": 0
        },
        {
          "id": "40573907805",
          "owner": "132740520@N06",
          "secret": "be190d3ec8",
          "server": "813",
          "farm": 1,
          "title": "IMG_2033а",
          "ispublic": 1,
          "isfriend": 0,
          "isfamily": 0
        },
        {
          "id": "39655701690",
          "owner": "53047503@N06",
          "secret": "734de193f0",
          "server": "887",
          "farm": 1,
          "title": "those big beautiful eyes (1)…..",
          "ispublic": 1,
          "isfriend": 0,
          "isfamily": 0
        },
        {
          "id": "27524044948",
          "owner": "54887840@N04",
          "secret": "129284bb89",
          "server": "814",
          "farm": 1,
          "title": "cat (21)",
          "ispublic": 1,
          "isfriend": 0,
          "isfamily": 0
        },
        {
          "id": "40421619785",
          "owner": "56532547@N05",
          "secret": "d38d124cac",
          "server": "813",
          "farm": 1,
          "title": "TU RÊVES PITCHOUNET ( LES CREVETTES SONT PETITES)",
          "ispublic": 1,
          "isfriend": 0,
          "isfamily": 0
        }
      ]
    }
  }
}
